mc16_13TeV.301020.PowhegPythia8EvtGen_AZNLOCTEQ6L1_DYmumu_120M180.deriv.DAOD_HIGG4D1.e3649_s3126_r10201_p3582
mc16_13TeV.301021.PowhegPythia8EvtGen_AZNLOCTEQ6L1_DYmumu_180M250.deriv.DAOD_HIGG4D1.e3649_s3126_r10201_p3582
mc16_13TeV.301022.PowhegPythia8EvtGen_AZNLOCTEQ6L1_DYmumu_250M400.deriv.DAOD_HIGG4D1.e3649_s3126_r10201_p3582
mc16_13TeV.308092.Sherpa_221_NNPDF30NNLO_Zee2jets_Min_N_TChannel.deriv.DAOD_HIGG4D1.e5767_s3126_r10201_p3582
mc16_13TeV.308093.Sherpa_221_NNPDF30NNLO_Zmm2jets_Min_N_TChannel.deriv.DAOD_HIGG4D1.e5767_s3126_r10201_p3582
mc16_13TeV.308094.Sherpa_221_NNPDF30NNLO_Ztautau2jets_Min_N_TChannel.deriv.DAOD_HIGG4D1.e5767_s3126_r10201_p3582
mc16_13TeV.343366.aMcAtNloPythia8EvtGen_A14_NNPDF23_NNPDF30ME_ttH125_semilep.deriv.DAOD_HIGG4D1.e4706_s3126_r10201_p3582
mc16_13TeV.343367.aMcAtNloPythia8EvtGen_A14_NNPDF23_NNPDF30ME_ttH125_allhad.deriv.DAOD_HIGG4D1.e4706_s3126_r10201_p3582
mc16_13TeV.343982.MadGraphPythia8EvtGen_A14NNPDF23_Zmumu_Np0_mVBFfilt.deriv.DAOD_HIGG4D1.e4967_s3126_r10201_p3582
mc16_13TeV.343983.MadGraphPythia8EvtGen_A14NNPDF23_Zmumu_Np1_mVBFfilt.deriv.DAOD_HIGG4D1.e4967_s3126_r10201_p3582
mc16_13TeV.343984.MadGraphPythia8EvtGen_A14NNPDF23_Zmumu_Np2_mVBFfilt.deriv.DAOD_HIGG4D1.e4967_s3126_r10201_p3582
mc16_13TeV.343985.MadGraphPythia8EvtGen_A14NNPDF23_Zmumu_Np3_mVBFfilt.deriv.DAOD_HIGG4D1.e4967_s3126_r10201_p3582
mc16_13TeV.343986.MadGraphPythia8EvtGen_A14NNPDF23_Zmumu_Np4_mVBFfilt.deriv.DAOD_HIGG4D1.e4967_s3126_r10201_p3582
mc16_13TeV.345099.Sherpa_221_NNPDF30NNLO_Zmumu_MAXHTPTV0_70_VBFfilt.deriv.DAOD_HIGG4D1.e5679_s3126_r10201_p3582
mc16_13TeV.345101.Sherpa_221_NNPDF30NNLO_Zee_MAXHTPTV0_70_VBFfilt.deriv.DAOD_HIGG4D1.e5679_s3126_r10201_p3582
mc16_13TeV.345102.Sherpa_221_NNPDF30NNLO_Zee_MAXHTPTV70_140_VBFfilt.deriv.DAOD_HIGG4D1.e5679_s3126_r10201_p3582
mc16_13TeV.361107.PowhegPythia8EvtGen_AZNLOCTEQ6L1_Zmumu.deriv.DAOD_HIGG4D1.e3601_s3126_r10201_p3582
mc16_13TeV.363123.MGPy8EG_N30NLO_Zmumu_Ht0_70_CVetoBVeto.deriv.DAOD_HIGG4D1.e4649_s3126_r10201_p3582
mc16_13TeV.363124.MGPy8EG_N30NLO_Zmumu_Ht0_70_CFilterBVeto.deriv.DAOD_HIGG4D1.e4649_s3126_r10201_p3582
mc16_13TeV.363125.MGPy8EG_N30NLO_Zmumu_Ht0_70_BFilter.deriv.DAOD_HIGG4D1.e4649_s3126_r10201_p3582
mc16_13TeV.363126.MGPy8EG_N30NLO_Zmumu_Ht70_140_CVetoBVeto.deriv.DAOD_HIGG4D1.e4649_s3126_r10201_p3582
mc16_13TeV.363127.MGPy8EG_N30NLO_Zmumu_Ht70_140_CFilterBVeto.deriv.DAOD_HIGG4D1.e4649_s3126_r10201_p3582
mc16_13TeV.363128.MGPy8EG_N30NLO_Zmumu_Ht70_140_BFilter.deriv.DAOD_HIGG4D1.e4649_s3126_r10201_p3582
mc16_13TeV.363129.MGPy8EG_N30NLO_Zmumu_Ht140_280_CVetoBVeto.deriv.DAOD_HIGG4D1.e4649_s3126_r10201_p3582
mc16_13TeV.363130.MGPy8EG_N30NLO_Zmumu_Ht140_280_CFilterBVeto.deriv.DAOD_HIGG4D1.e4649_s3126_r10201_p3582
mc16_13TeV.363131.MGPy8EG_N30NLO_Zmumu_Ht140_280_BFilter.deriv.DAOD_HIGG4D1.e4649_s3126_r10201_p3582
mc16_13TeV.363132.MGPy8EG_N30NLO_Zmumu_Ht280_500_CVetoBVeto.deriv.DAOD_HIGG4D1.e4649_s3126_r10201_p3582
mc16_13TeV.363133.MGPy8EG_N30NLO_Zmumu_Ht280_500_CFilterBVeto.deriv.DAOD_HIGG4D1.e4649_s3126_r10201_p3582
mc16_13TeV.363134.MGPy8EG_N30NLO_Zmumu_Ht280_500_BFilter.deriv.DAOD_HIGG4D1.e4649_s3126_r10201_p3582
mc16_13TeV.363135.MGPy8EG_N30NLO_Zmumu_Ht500_700_CVetoBVeto.deriv.DAOD_HIGG4D1.e4649_s3126_r10201_p3582
mc16_13TeV.363136.MGPy8EG_N30NLO_Zmumu_Ht500_700_CFilterBVeto.deriv.DAOD_HIGG4D1.e4649_s3126_r10201_p3582
mc16_13TeV.363137.MGPy8EG_N30NLO_Zmumu_Ht500_700_BFilter.deriv.DAOD_HIGG4D1.e4649_s3126_r10201_p3582
mc16_13TeV.363138.MGPy8EG_N30NLO_Zmumu_Ht700_1000_CVetoBVeto.deriv.DAOD_HIGG4D1.e4649_s3126_r10201_p3582
mc16_13TeV.363139.MGPy8EG_N30NLO_Zmumu_Ht700_1000_CFilterBVeto.deriv.DAOD_HIGG4D1.e4649_s3126_r10201_p3582
mc16_13TeV.363140.MGPy8EG_N30NLO_Zmumu_Ht700_1000_BFilter.deriv.DAOD_HIGG4D1.e4649_s3126_r10201_p3582
mc16_13TeV.363141.MGPy8EG_N30NLO_Zmumu_Ht1000_2000_CVetoBVeto.deriv.DAOD_HIGG4D1.e4649_s3126_r10201_p3582
mc16_13TeV.363142.MGPy8EG_N30NLO_Zmumu_Ht1000_2000_CFilterBVeto.deriv.DAOD_HIGG4D1.e4649_s3126_r10201_p3582
mc16_13TeV.363143.MGPy8EG_N30NLO_Zmumu_Ht1000_2000_BFilter.deriv.DAOD_HIGG4D1.e4649_s3126_r10201_p3582
mc16_13TeV.363144.MGPy8EG_N30NLO_Zmumu_Ht2000_E_CMS_CVetoBVeto.deriv.DAOD_HIGG4D1.e4649_s3126_r10201_p3582
mc16_13TeV.363145.MGPy8EG_N30NLO_Zmumu_Ht2000_E_CMS_CFilterBVeto.deriv.DAOD_HIGG4D1.e4649_s3126_r10201_p3582
mc16_13TeV.363146.MGPy8EG_N30NLO_Zmumu_Ht2000_E_CMS_BFilter.deriv.DAOD_HIGG4D1.e4649_s3126_r10201_p3582
mc16_13TeV.363356.Sherpa_221_NNPDF30NNLO_ZqqZll.deriv.DAOD_HIGG4D1.e5525_s3126_r10201_p3582
mc16_13TeV.363358.Sherpa_221_NNPDF30NNLO_WqqZll.deriv.DAOD_HIGG4D1.e5525_s3126_r10201_p3582
mc16_13TeV.364100.Sherpa_221_NNPDF30NNLO_Zmumu_MAXHTPTV0_70_CVetoBVeto.deriv.DAOD_HIGG4D1.e5271_s3126_r10201_p3582
mc16_13TeV.364101.Sherpa_221_NNPDF30NNLO_Zmumu_MAXHTPTV0_70_CFilterBVeto.deriv.DAOD_HIGG4D1.e5271_s3126_r10201_p3582
mc16_13TeV.364102.Sherpa_221_NNPDF30NNLO_Zmumu_MAXHTPTV0_70_BFilter.deriv.DAOD_HIGG4D1.e5271_s3126_r10201_p3582
mc16_13TeV.364103.Sherpa_221_NNPDF30NNLO_Zmumu_MAXHTPTV70_140_CVetoBVeto.deriv.DAOD_HIGG4D1.e5271_s3126_r10201_p3582
mc16_13TeV.364104.Sherpa_221_NNPDF30NNLO_Zmumu_MAXHTPTV70_140_CFilterBVeto.deriv.DAOD_HIGG4D1.e5271_s3126_r10201_p3582
mc16_13TeV.364105.Sherpa_221_NNPDF30NNLO_Zmumu_MAXHTPTV70_140_BFilter.deriv.DAOD_HIGG4D1.e5271_s3126_r10201_p3582
mc16_13TeV.364106.Sherpa_221_NNPDF30NNLO_Zmumu_MAXHTPTV140_280_CVetoBVeto.deriv.DAOD_HIGG4D1.e5271_s3126_r10201_p3582
mc16_13TeV.364107.Sherpa_221_NNPDF30NNLO_Zmumu_MAXHTPTV140_280_CFilterBVeto.deriv.DAOD_HIGG4D1.e5271_s3126_r10201_p3582
mc16_13TeV.364108.Sherpa_221_NNPDF30NNLO_Zmumu_MAXHTPTV140_280_BFilter.deriv.DAOD_HIGG4D1.e5271_s3126_r10201_p3582
mc16_13TeV.364109.Sherpa_221_NNPDF30NNLO_Zmumu_MAXHTPTV280_500_CVetoBVeto.deriv.DAOD_HIGG4D1.e5271_s3126_r10201_p3582
mc16_13TeV.364110.Sherpa_221_NNPDF30NNLO_Zmumu_MAXHTPTV280_500_CFilterBVeto.deriv.DAOD_HIGG4D1.e5271_s3126_r10201_p3582
mc16_13TeV.364111.Sherpa_221_NNPDF30NNLO_Zmumu_MAXHTPTV280_500_BFilter.deriv.DAOD_HIGG4D1.e5271_s3126_r10201_p3582
mc16_13TeV.364112.Sherpa_221_NNPDF30NNLO_Zmumu_MAXHTPTV500_1000.deriv.DAOD_HIGG4D1.e5271_s3126_r10201_p3582
mc16_13TeV.364113.Sherpa_221_NNPDF30NNLO_Zmumu_MAXHTPTV1000_E_CMS.deriv.DAOD_HIGG4D1.e5271_s3126_r10201_p3582
mc16_13TeV.364114.Sherpa_221_NNPDF30NNLO_Zee_MAXHTPTV0_70_CVetoBVeto.deriv.DAOD_HIGG4D1.e5299_s3126_r10201_p3582
mc16_13TeV.364115.Sherpa_221_NNPDF30NNLO_Zee_MAXHTPTV0_70_CFilterBVeto.deriv.DAOD_HIGG4D1.e5299_s3126_r10201_p3582
mc16_13TeV.364116.Sherpa_221_NNPDF30NNLO_Zee_MAXHTPTV0_70_BFilter.deriv.DAOD_HIGG4D1.e5299_s3126_r10201_p3582
mc16_13TeV.364117.Sherpa_221_NNPDF30NNLO_Zee_MAXHTPTV70_140_CVetoBVeto.deriv.DAOD_HIGG4D1.e5299_s3126_r10201_p3582
mc16_13TeV.364118.Sherpa_221_NNPDF30NNLO_Zee_MAXHTPTV70_140_CFilterBVeto.deriv.DAOD_HIGG4D1.e5299_s3126_r10201_p3582
mc16_13TeV.364119.Sherpa_221_NNPDF30NNLO_Zee_MAXHTPTV70_140_BFilter.deriv.DAOD_HIGG4D1.e5299_s3126_r10201_p3582
mc16_13TeV.364120.Sherpa_221_NNPDF30NNLO_Zee_MAXHTPTV140_280_CVetoBVeto.deriv.DAOD_HIGG4D1.e5299_s3126_r10201_p3582
mc16_13TeV.364121.Sherpa_221_NNPDF30NNLO_Zee_MAXHTPTV140_280_CFilterBVeto.deriv.DAOD_HIGG4D1.e5299_s3126_r10201_p3582
mc16_13TeV.364122.Sherpa_221_NNPDF30NNLO_Zee_MAXHTPTV140_280_BFilter.deriv.DAOD_HIGG4D1.e5299_s3126_r10201_p3582
mc16_13TeV.364123.Sherpa_221_NNPDF30NNLO_Zee_MAXHTPTV280_500_CVetoBVeto.deriv.DAOD_HIGG4D1.e5299_s3126_r10201_p3582
mc16_13TeV.364124.Sherpa_221_NNPDF30NNLO_Zee_MAXHTPTV280_500_CFilterBVeto.deriv.DAOD_HIGG4D1.e5299_s3126_r10201_p3582
mc16_13TeV.364125.Sherpa_221_NNPDF30NNLO_Zee_MAXHTPTV280_500_BFilter.deriv.DAOD_HIGG4D1.e5299_s3126_r10201_p3582
mc16_13TeV.364126.Sherpa_221_NNPDF30NNLO_Zee_MAXHTPTV500_1000.deriv.DAOD_HIGG4D1.e5299_s3126_r10201_p3582
mc16_13TeV.364127.Sherpa_221_NNPDF30NNLO_Zee_MAXHTPTV1000_E_CMS.deriv.DAOD_HIGG4D1.e5299_s3126_r10201_p3582
mc16_13TeV.364128.Sherpa_221_NNPDF30NNLO_Ztautau_MAXHTPTV0_70_CVetoBVeto.deriv.DAOD_HIGG4D1.e5307_s3126_r10201_p3582
mc16_13TeV.364129.Sherpa_221_NNPDF30NNLO_Ztautau_MAXHTPTV0_70_CFilterBVeto.deriv.DAOD_HIGG4D1.e5307_s3126_r10201_p3582
mc16_13TeV.364130.Sherpa_221_NNPDF30NNLO_Ztautau_MAXHTPTV0_70_BFilter.deriv.DAOD_HIGG4D1.e5307_s3126_r10201_p3582
mc16_13TeV.364131.Sherpa_221_NNPDF30NNLO_Ztautau_MAXHTPTV70_140_CVetoBVeto.deriv.DAOD_HIGG4D1.e5307_s3126_r10201_p3582
mc16_13TeV.364132.Sherpa_221_NNPDF30NNLO_Ztautau_MAXHTPTV70_140_CFilterBVeto.deriv.DAOD_HIGG4D1.e5307_s3126_r10201_p3582
mc16_13TeV.364133.Sherpa_221_NNPDF30NNLO_Ztautau_MAXHTPTV70_140_BFilter.deriv.DAOD_HIGG4D1.e5307_s3126_r10201_p3582
mc16_13TeV.364134.Sherpa_221_NNPDF30NNLO_Ztautau_MAXHTPTV140_280_CVetoBVeto.deriv.DAOD_HIGG4D1.e5307_s3126_r10201_p3582
mc16_13TeV.364135.Sherpa_221_NNPDF30NNLO_Ztautau_MAXHTPTV140_280_CFilterBVeto.deriv.DAOD_HIGG4D1.e5307_s3126_r10201_p3582
mc16_13TeV.364136.Sherpa_221_NNPDF30NNLO_Ztautau_MAXHTPTV140_280_BFilter.deriv.DAOD_HIGG4D1.e5307_s3126_r10201_p3582
mc16_13TeV.364137.Sherpa_221_NNPDF30NNLO_Ztautau_MAXHTPTV280_500_CVetoBVeto.deriv.DAOD_HIGG4D1.e5307_s3126_r10201_p3582
mc16_13TeV.364138.Sherpa_221_NNPDF30NNLO_Ztautau_MAXHTPTV280_500_CFilterBVeto.deriv.DAOD_HIGG4D1.e5313_s3126_r10201_p3582
mc16_13TeV.364139.Sherpa_221_NNPDF30NNLO_Ztautau_MAXHTPTV280_500_BFilter.deriv.DAOD_HIGG4D1.e5313_s3126_r10201_p3582
mc16_13TeV.364140.Sherpa_221_NNPDF30NNLO_Ztautau_MAXHTPTV500_1000.deriv.DAOD_HIGG4D1.e5307_s3126_r10201_p3582
mc16_13TeV.364141.Sherpa_221_NNPDF30NNLO_Ztautau_MAXHTPTV1000_E_CMS.deriv.DAOD_HIGG4D1.e5307_s3126_r10201_p3582
mc16_13TeV.364216.Sherpa_221_NNPDF30NNLO_Zmumu_PTV500_1000.deriv.DAOD_HIGG4D1.e5626_s3126_r10201_p3582
mc16_13TeV.364217.Sherpa_221_NNPDF30NNLO_Zmumu_PTV1000_E_CMS.deriv.DAOD_HIGG4D1.e5626_s3126_r10201_p3582
mc16_13TeV.364218.Sherpa_221_NNPDF30NNLO_Zee_PTV500_1000.deriv.DAOD_HIGG4D1.e5626_s3126_r10201_p3582
mc16_13TeV.364219.Sherpa_221_NNPDF30NNLO_Zee_PTV1000_E_CMS.deriv.DAOD_HIGG4D1.e5626_s3126_r10201_p3582
mc16_13TeV.364232.Sherpa_221_NNPDF30NNLO_Zmumu_MAXHTPTV500_1000_Mll130.deriv.DAOD_HIGG4D1.e5750_s3126_r10201_p3582
mc16_13TeV.364233.Sherpa_221_NNPDF30NNLO_Zmumu_MAXHTPTV1000_E_CMS_Mll130.deriv.DAOD_HIGG4D1.e5750_s3126_r10201_p3582
mc16_13TeV.364235.Sherpa_221_NNPDF30NNLO_Zee_MAXHTPTV280_500_Mll130.deriv.DAOD_HIGG4D1.e5750_s3126_r10201_p3582
mc16_13TeV.364236.Sherpa_221_NNPDF30NNLO_Zee_MAXHTPTV500_1000_Mll130.deriv.DAOD_HIGG4D1.e5750_s3126_r10201_p3582
mc16_13TeV.364237.Sherpa_221_NNPDF30NNLO_Zee_MAXHTPTV1000_E_CMS_Mll130.deriv.DAOD_HIGG4D1.e5750_s3126_r10201_p3582
mc16_13TeV.364250.Sherpa_222_NNPDF30NNLO_llll.deriv.DAOD_HIGG4D1.e5894_s3126_r10201_p3582
mc16_13TeV.364253.Sherpa_222_NNPDF30NNLO_lllv.deriv.DAOD_HIGG4D1.e5916_s3126_r10201_p3582
mc16_13TeV.364254.Sherpa_222_NNPDF30NNLO_llvv.deriv.DAOD_HIGG4D1.e5916_s3126_r10201_p3582
mc16_13TeV.364280.Sherpa_221_NNPDF30NNLO_Zee_Mll2Ml_MAXHTPTV280_E_CMS.deriv.DAOD_HIGG4D1.e6037_s3126_r10201_p3582
mc16_13TeV.364281.Sherpa_221_NNPDF30NNLO_Zmumu_Mll2Ml_MAXHTPTV280_E_CMS.deriv.DAOD_HIGG4D1.e6037_s3126_r10201_p3582
mc16_13TeV.410013.PowhegPythiaEvtGen_P2012_Wt_inclusive_top.deriv.DAOD_HIGG4D1.e3753_s3126_r10201_p3596
mc16_13TeV.410015.PowhegPythiaEvtGen_P2012_Wt_dilepton_top.deriv.DAOD_HIGG4D1.e3753_s3126_r10201_p3582
mc16_13TeV.410016.PowhegPythiaEvtGen_P2012_Wt_dilepton_antitop.deriv.DAOD_HIGG4D1.e3753_s3126_r10201_p3582
mc16_13TeV.410025.PowhegPythiaEvtGen_P2012_SingleTopSchan_noAllHad_top.deriv.DAOD_HIGG4D1.e3998_s3126_r10201_p3596
mc16_13TeV.410082.MadGraphPythia8EvtGen_A14NNPDF23LO_ttgamma_noallhad.deriv.DAOD_HIGG4D1.e4404_s3126_r10201_p3582
mc16_13TeV.410155.aMcAtNloPythia8EvtGen_MEN30NLO_A14N23LO_ttW.deriv.DAOD_HIGG4D1.e5070_s3126_r10201_p3582
mc16_13TeV.410156.aMcAtNloPythia8EvtGen_MEN30NLO_A14N23LO_ttZnunu.deriv.DAOD_HIGG4D1.e5070_s3126_r10201_p3582
mc16_13TeV.410157.aMcAtNloPythia8EvtGen_MEN30NLO_A14N23LO_ttZqq.deriv.DAOD_HIGG4D1.e5070_s3126_r10201_p3582
mc16_13TeV.410218.aMcAtNloPythia8EvtGen_MEN30NLO_A14N23LO_ttee.deriv.DAOD_HIGG4D1.e5070_s3126_r10201_p3582
mc16_13TeV.410219.aMcAtNloPythia8EvtGen_MEN30NLO_A14N23LO_ttmumu.deriv.DAOD_HIGG4D1.e5070_s3126_r10201_p3582
mc16_13TeV.410220.aMcAtNloPythia8EvtGen_MEN30NLO_A14N23LO_tttautau.deriv.DAOD_HIGG4D1.e5070_s3126_r10201_p3582
mc16_13TeV.410470.PhPy8EG_A14_ttbar_hdamp258p75_nonallhad.deriv.DAOD_HIGG4D1.e6337_s3126_r10201_p3582
mc16_13TeV.410472.PhPy8EG_A14_ttbar_hdamp258p75_dil.deriv.DAOD_HIGG4D1.e6348_s3126_r10201_p3582
mc16_13TeV.410550.MadGraphPythia8EvtGen_A14_tZ_4fl_tchan_trilepton.deriv.DAOD_HIGG4D1.e5803_s3126_r10201_p3582
mc16_13TeV.410560.MadGraphPythia8EvtGen_A14_tZ_4fl_tchan_noAllHad.deriv.DAOD_HIGG4D1.e5803_s3126_r10201_p3582
mc16_13TeV.410645.PowhegPythia8EvtGen_A14_singletop_schan_lept_antitop.deriv.DAOD_HIGG4D1.e6527_s3126_r10201_p3596
mc16_13TeV.410647.PowhegPythia8EvtGen_A14_Wt_DR_inclusive_antitop.deriv.DAOD_HIGG4D1.e6552_s3126_r10201_p3596
mc16_13TeV.410659.PhPy8EG_A14_tchan_BW50_lept_antitop.deriv.DAOD_HIGG4D1.e6671_s3126_r10201_p3596
